info face="KiriFont" size=15 bold=0 italic=0 charset="" unicode=1 stretchH=100 smooth=1 aa=1 padding=0,0,0,0 spacing=2,2
common lineHeight=34 base=20 scaleW=256 scaleH=128 pages=1 packed=0 alphaChnl=0 redChnl=4 greenChnl=4 blueChnl=4
page id=0 file="KiriFont_15.png"
chars count=95
char id=32   x=2     y=2     width=0     height=0     xoffset=0     yoffset=20    xadvance=8     page=0  chnl=0
char id=33   x=2     y=6     width=5     height=17    xoffset=1     yoffset=4     xadvance=7     page=0  chnl=0
char id=34   x=2     y=27    width=5     height=5     xoffset=1     yoffset=4     xadvance=7     page=0  chnl=0
char id=35   x=2     y=36    width=9     height=10    xoffset=0     yoffset=10    xadvance=9     page=0  chnl=0
char id=36   x=6     y=2     width=0     height=0     xoffset=0     yoffset=20    xadvance=2     page=0  chnl=0
char id=37   x=10    y=2     width=0     height=0     xoffset=0     yoffset=20    xadvance=2     page=0  chnl=0
char id=38   x=11    y=6     width=0     height=0     xoffset=0     yoffset=20    xadvance=2     page=0  chnl=0
char id=39   x=14    y=2     width=0     height=0     xoffset=0     yoffset=20    xadvance=2     page=0  chnl=0
char id=40   x=2     y=50    width=15    height=27    xoffset=-6    yoffset=0     xadvance=9     page=0  chnl=0
char id=41   x=15    y=6     width=14    height=27    xoffset=1     yoffset=0     xadvance=9     page=0  chnl=0
char id=42   x=11    y=10    width=0     height=0     xoffset=0     yoffset=20    xadvance=2     page=0  chnl=0
char id=43   x=15    y=37    width=8     height=8     xoffset=0     yoffset=10    xadvance=8     page=0  chnl=0
char id=44   x=2     y=81    width=3     height=5     xoffset=1     yoffset=18    xadvance=5     page=0  chnl=0
char id=45   x=2     y=90    width=8     height=2     xoffset=0     yoffset=13    xadvance=8     page=0  chnl=0
char id=46   x=9     y=81    width=2     height=2     xoffset=1     yoffset=18    xadvance=4     page=0  chnl=0
char id=47   x=2     y=96    width=9     height=14    xoffset=0     yoffset=7     xadvance=9     page=0  chnl=0
char id=48   x=15    y=81    width=17    height=14    xoffset=-4    yoffset=6     xadvance=2     page=0  chnl=0
char id=49   x=15    y=99    width=5     height=13    xoffset=1     yoffset=7     xadvance=7     page=0  chnl=0
char id=50   x=24    y=99    width=10    height=15    xoffset=0     yoffset=5     xadvance=10    page=0  chnl=0
char id=51   x=21    y=49    width=11    height=15    xoffset=0     yoffset=7     xadvance=10    page=0  chnl=0
char id=52   x=33    y=2     width=11    height=14    xoffset=0     yoffset=7     xadvance=12    page=0  chnl=0
char id=53   x=33    y=20    width=11    height=14    xoffset=0     yoffset=7     xadvance=12    page=0  chnl=0
char id=54   x=36    y=38    width=13    height=17    xoffset=0     yoffset=7     xadvance=12    page=0  chnl=0
char id=55   x=48    y=2     width=11    height=14    xoffset=0     yoffset=7     xadvance=11    page=0  chnl=0
char id=56   x=48    y=20    width=16    height=14    xoffset=-3    yoffset=6     xadvance=11    page=0  chnl=0
char id=57   x=36    y=59    width=16    height=15    xoffset=-2    yoffset=7     xadvance=12    page=0  chnl=0
char id=58   x=21    y=68    width=3     height=9     xoffset=1     yoffset=10    xadvance=4     page=0  chnl=0
char id=59   x=2     y=114   width=3     height=12    xoffset=1     yoffset=10    xadvance=4     page=0  chnl=0
char id=60   x=18    y=2     width=0     height=0     xoffset=0     yoffset=20    xadvance=2     page=0  chnl=0
char id=61   x=22    y=2     width=0     height=0     xoffset=0     yoffset=20    xadvance=2     page=0  chnl=0
char id=62   x=26    y=2     width=0     height=0     xoffset=0     yoffset=20    xadvance=2     page=0  chnl=0
char id=63   x=53    y=38    width=7     height=15    xoffset=1     yoffset=5     xadvance=9     page=0  chnl=0
char id=64   x=11    y=14    width=0     height=0     xoffset=0     yoffset=20    xadvance=2     page=0  chnl=0
char id=65   x=36    y=78    width=14    height=15    xoffset=0     yoffset=6     xadvance=15    page=0  chnl=0
char id=66   x=38    y=97    width=12    height=16    xoffset=1     yoffset=5     xadvance=12    page=0  chnl=0
char id=67   x=54    y=78    width=12    height=21    xoffset=0     yoffset=3     xadvance=12    page=0  chnl=0
char id=68   x=56    y=57    width=11    height=15    xoffset=1     yoffset=5     xadvance=13    page=0  chnl=0
char id=69   x=63    y=2     width=9     height=14    xoffset=1     yoffset=6     xadvance=11    page=0  chnl=0
char id=70   x=64    y=38    width=9     height=15    xoffset=1     yoffset=5     xadvance=10    page=0  chnl=0
char id=71   x=54    y=103   width=11    height=23    xoffset=1     yoffset=1     xadvance=13    page=0  chnl=0
char id=72   x=68    y=20    width=11    height=14    xoffset=1     yoffset=6     xadvance=13    page=0  chnl=0
char id=73   x=76    y=2     width=3     height=14    xoffset=1     yoffset=6     xadvance=6     page=0  chnl=0
char id=74   x=69    y=103   width=8     height=17    xoffset=0     yoffset=6     xadvance=10    page=0  chnl=0
char id=75   x=70    y=76    width=12    height=16    xoffset=1     yoffset=5     xadvance=14    page=0  chnl=0
char id=76   x=71    y=57    width=8     height=15    xoffset=1     yoffset=5     xadvance=10    page=0  chnl=0
char id=77   x=77    y=38    width=13    height=15    xoffset=1     yoffset=5     xadvance=15    page=0  chnl=0
char id=78   x=83    y=57    width=12    height=15    xoffset=1     yoffset=5     xadvance=13    page=0  chnl=0
char id=79   x=81    y=96    width=20    height=14    xoffset=-2    yoffset=6     xadvance=15    page=0  chnl=0
char id=80   x=86    y=76    width=10    height=15    xoffset=1     yoffset=5     xadvance=11    page=0  chnl=0
char id=81   x=83    y=2     width=19    height=16    xoffset=-2    yoffset=6     xadvance=17    page=0  chnl=0
char id=82   x=94    y=22    width=11    height=14    xoffset=1     yoffset=6     xadvance=12    page=0  chnl=0
char id=83   x=99    y=40    width=15    height=19    xoffset=-1    yoffset=4     xadvance=12    page=0  chnl=0
char id=84   x=106   y=2     width=13    height=15    xoffset=0     yoffset=6     xadvance=14    page=0  chnl=0
char id=85   x=109   y=21    width=11    height=15    xoffset=1     yoffset=5     xadvance=14    page=0  chnl=0
char id=86   x=123   y=2     width=13    height=15    xoffset=0     yoffset=5     xadvance=13    page=0  chnl=0
char id=87   x=100   y=63    width=13    height=16    xoffset=1     yoffset=5     xadvance=15    page=0  chnl=0
char id=88   x=105   y=83    width=12    height=16    xoffset=0     yoffset=5     xadvance=13    page=0  chnl=0
char id=89   x=117   y=63    width=12    height=15    xoffset=0     yoffset=5     xadvance=13    page=0  chnl=0
char id=90   x=118   y=40    width=10    height=15    xoffset=0     yoffset=5     xadvance=11    page=0  chnl=0
char id=91   x=11    y=18    width=0     height=0     xoffset=0     yoffset=20    xadvance=2     page=0  chnl=0
char id=92   x=11    y=22    width=0     height=0     xoffset=0     yoffset=20    xadvance=2     page=0  chnl=0
char id=93   x=11    y=26    width=0     height=0     xoffset=0     yoffset=20    xadvance=2     page=0  chnl=0
char id=94   x=11    y=30    width=0     height=0     xoffset=0     yoffset=20    xadvance=2     page=0  chnl=0
char id=95   x=118   y=59    width=0     height=0     xoffset=0     yoffset=20    xadvance=2     page=0  chnl=0
char id=96   x=122   y=59    width=0     height=0     xoffset=0     yoffset=20    xadvance=2     page=0  chnl=0
char id=97   x=124   y=21    width=13    height=14    xoffset=0     yoffset=7     xadvance=14    page=0  chnl=0
char id=98   x=140   y=2     width=12    height=14    xoffset=1     yoffset=7     xadvance=11    page=0  chnl=0
char id=99   x=132   y=39    width=10    height=18    xoffset=1     yoffset=5     xadvance=11    page=0  chnl=0
char id=100  x=141   y=20    width=10    height=13    xoffset=1     yoffset=7     xadvance=12    page=0  chnl=0
char id=101  x=105   y=103   width=9     height=13    xoffset=1     yoffset=7     xadvance=10    page=0  chnl=0
char id=102  x=118   y=103   width=8     height=13    xoffset=1     yoffset=7     xadvance=10    page=0  chnl=0
char id=103  x=130   y=82    width=11    height=20    xoffset=0     yoffset=3     xadvance=12    page=0  chnl=0
char id=104  x=133   y=61    width=11    height=13    xoffset=1     yoffset=7     xadvance=12    page=0  chnl=0
char id=105  x=121   y=82    width=3     height=14    xoffset=1     yoffset=6     xadvance=5     page=0  chnl=0
char id=106  x=146   y=37    width=8     height=16    xoffset=0     yoffset=7     xadvance=9     page=0  chnl=0
char id=107  x=130   y=106   width=11    height=14    xoffset=1     yoffset=7     xadvance=12    page=0  chnl=0
char id=108  x=155   y=20    width=8     height=13    xoffset=1     yoffset=7     xadvance=9     page=0  chnl=0
char id=109  x=156   y=2     width=13    height=13    xoffset=1     yoffset=7     xadvance=14    page=0  chnl=0
char id=110  x=145   y=78    width=10    height=13    xoffset=1     yoffset=7     xadvance=12    page=0  chnl=0
char id=111  x=148   y=57    width=18    height=13    xoffset=-2    yoffset=7     xadvance=14    page=0  chnl=0
char id=112  x=158   y=37    width=9     height=14    xoffset=1     yoffset=6     xadvance=10    page=0  chnl=0
char id=113  x=145   y=95    width=18    height=15    xoffset=-2    yoffset=7     xadvance=16    page=0  chnl=0
char id=114  x=167   y=19    width=10    height=13    xoffset=1     yoffset=7     xadvance=11    page=0  chnl=0
char id=115  x=159   y=74    width=13    height=17    xoffset=-1    yoffset=5     xadvance=11    page=0  chnl=0
char id=116  x=173   y=2     width=12    height=13    xoffset=1     yoffset=7     xadvance=13    page=0  chnl=0
char id=117  x=170   y=55    width=11    height=13    xoffset=1     yoffset=7     xadvance=13    page=0  chnl=0
char id=118  x=171   y=36    width=12    height=14    xoffset=0     yoffset=6     xadvance=12    page=0  chnl=0
char id=119  x=181   y=19    width=12    height=13    xoffset=1     yoffset=7     xadvance=14    page=0  chnl=0
char id=120  x=167   y=95    width=11    height=15    xoffset=0     yoffset=6     xadvance=12    page=0  chnl=0
char id=121  x=176   y=72    width=11    height=14    xoffset=1     yoffset=6     xadvance=12    page=0  chnl=0
char id=122  x=189   y=2     width=10    height=13    xoffset=0     yoffset=7     xadvance=10    page=0  chnl=0
char id=123  x=126   y=59    width=0     height=0     xoffset=0     yoffset=20    xadvance=2     page=0  chnl=0
char id=124  x=148   y=74    width=0     height=0     xoffset=0     yoffset=20    xadvance=2     page=0  chnl=0
char id=125  x=152   y=74    width=0     height=0     xoffset=0     yoffset=20    xadvance=2     page=0  chnl=0
char id=126  x=133   y=78    width=0     height=0     xoffset=0     yoffset=20    xadvance=2     page=0  chnl=0
kernings count=0
